Exploring the Bechdel Test and its Significance
…
There are 9 attributes as we can see here; well be utilizing all of these, perhaps except period.code, decade.code or code to answer one or the other question in the process of sheddling light on whether the Bechdel test is a significant metric or not, and whether it has a real foretelling on the movie profitability.

Some domgross and intgross are missing, and accordingly domgross_2013, intgross_2013 values as well; lets start by listing them down to figure out whether these are values missing at random or not at random.11 The attributes budget, domgross, and intgross are less relevant for our study because all the financial data included in the dataset has been converted to what would amount to the same money in 2013 after accounting for inflation.

rawData %>%
  filter_all(any_vars(is.na(.)))

## # A tibble: 187 x 15
##     year imdb      title  test  clean_test binary budget domgross intgross code 
##    <int> <chr>     <chr>  <chr> <chr>      <chr>   <dbl>    <dbl>    <dbl> <chr>
##  1  2013 tt2005374 The F~ nowo~ nowomen    FAIL   1.92e7 19200000  NA      2013~
##  2  2011 tt1701990 Deten~ ok    ok         PASS   1.04e7 10356908  NA      2011~
##  3  2010 tt1216520 Womb   ok    ok         PASS   1.39e7 13887014  NA      2010~
##  4  2009 tt1068678 Veron~ ok    ok         PASS   9.77e6  9771584  NA      2009~
##  5  2009 tt0448182 Yeste~ ok    ok         PASS   2.17e5   217146  NA      2009~
##  6  2008 tt0489018 Day o~ ok    ok         PASS   1.95e7 19480614  NA      2008~
##  7  2008 tt0942903 Starg~ dubi~ dubious    FAIL   7.58e6  7575794  NA      2008~
##  8  2007 tt0756683 The M~ nota~ notalk     FAIL   2.25e5   224709  NA      2007~
##  9  1989 tt0096874 Back ~ ok    ok         PASS   7.52e7 75183554   3.32e8 1989~
## 10  1989 tt0096895 Batman nota~ notalk     FAIL   6.58e7 65785609   4.11e8 1989~
## # ... with 177 more rows, and 5 more variables: budget_2013. <dbl>,
## #   domgross_2013. <dbl>, intgross_2013. <dbl>, period.code <int>,
## #   decade.code <int>
…
There is a fair amount of small-budget and big-budget movies in our dataset, so were not limited to just large studio productions or small set indie movies. To dig deeper into financial data, lets split our domestic and total profits to give us total international profits, and calculate ROI.

rawData$intOnly<-rawData$intgross_2013.-rawData$domgross_2013.

rawData$ROI<-round(rawData$intgross_2013./rawData$budget_2013., 3)
rawData$ROI_dom<-round(rawData$domgross_2013./rawData$budget_2013., 3)
rawData$ROI_int<-round(rawData$intOnly/rawData$budget_2013., 3)
rawData[, c("title","binary", "ROI", "ROI_dom", "ROI_int")]

## # A tibble: 1,783 x 5
##    title                  binary   ROI ROI_dom ROI_int
##    <chr>                  <chr>  <dbl>   <dbl>   <dbl>
##  1 21 &amp; Over          FAIL   3.25        1   2.25 
##  2 Dredd 3D               PASS   0.908       1  -0.092
##  3 12 Years a Slave       FAIL   7.93        1   6.93 
##  4 2 Guns                 FAIL   2.17        1   1.17 
##  5 42                     FAIL   2.38        1   1.38 
##  6 47 Ronin               FAIL   0.648       1  -0.352
##  7 A Good Day to Die Hard FAIL   3.31        1   2.31 
##  8 About Time             PASS   7.28        1   6.28 
##  9 Admission              PASS   1.38        1   0.385
## 10 After Earth            FAIL   1.88        1   0.88 
## # ... with 1,773 more rows
…
